Problem Set 4
…
group_by(projects_merged, institute) %>%
  arrange(desc(total.cost)) %>%
  slice(1:1) -> most_expensive 
most_expensive %>%
  arrange(desc(total.cost))

#> Source: local data frame [25 x 3]
#> Groups: institute [25]
#> 
#>    institute project.num total.cost
#>       <fctr>       <chr>      <dbl>
#> 1         LM ZIHLM200888 1544981304
#> 2         CA ZIFBC000001  652060692
#> 3         HG U54HG003067  527942706
#> 4         AI ZIFAI000001  389496063
#> 5         AG U01AG009740  219008592
#> 6         DK U01DK061230  199581387
#> 7         RR P51RR000166  161140557
#> 8         HL ZIFHL000001  151243202
#> 9         MH ZIFMH000001  149352161
#> 10        HD U01HD052102  147186026
#> # ... with 15 more rows
…
Problem 4

Calculate correlations between total.cost and n.pubs for each institute. You will need to join the projects and project_io tables to link institute with total.cost and n.pubs. You will then need to use group_by and do from dplyr and tidy from broom to calculate correlations.

projects %>%
  left_join(project_io) %>%
  na.omit() %>%
  select(institute, total.cost, n.pubs) %>%
  group_by(institute) %>%
 do(tidy(cor(.$total.cost, .$n.pubs))) %>% 
  arrange(desc(x))

#> Joining, by = "project.num"

#> Source: local data frame [25 x 2]
#> Groups: institute [25]
#> 
#>    institute         x
#>       <fctr>     <dbl>
#> 1         RR 0.8831120
#> 2         LM 0.8726804
#> 3         TW 0.8454285
#> 4         AT 0.7846422
#> 5         EB 0.7473651
#> 6         DC 0.7319286
#> 7         AA 0.7309780
#> 8         GM 0.6686067
#> 9         AI 0.6632898
#> 10        HG 0.6477962
#> # ... with 15 more rows
…
projects %>%
  left_join(publinks, by = "project.num") %>%
  left_join(publications, by = "pmid") %>%
  left_join(project_io) %>%
  na.omit () %>%
  group_by(institute) %>%
  select(institute, total.cost, rcr) %>%
  do(tidy(cor(.$total.cost, .$rcr))) -> rcr_data

#> Joining, by = "project.num"

rcr_data

#> Source: local data frame [25 x 2]
#> Groups: institute [25]
#> 
#>    institute            x
#>       <fctr>        <dbl>
#> 1         AA  0.036696409
#> 2         AG  0.022863317
#> 3         AI  0.010262736
#> 4         AR  0.017216578
#> 5         AT -0.020083255
#> 6         CA  0.004865006
#> 7         DA -0.006758533
#> 8         DC  0.023937044
#> 9         DE  0.072407960
#> 10        DK  0.031201038
#> # ... with 15 more rows
…
